{
  "_id" : "5f0d28d81ccd087b0c0ea4ac",
  "date" : "July 12th",
  "time" : "17:00 GMT",
  "format" : "Best of 3 double elimination bracket",
  "rounds" : 3,
  "registrants" : [
      "【W】[Unicorn] QH",
      "[BSE][Unicorn] Makocb",
      "jerle-apeño",
      "TheEffectTheCause ",
      "Academia",
      "[FORGE] Ferretmaster",
      "Fhuj",
      "【W】blazing tortoise",
      "[ICARUS] Nimzo",
      "【W】Viroo *",
      "【W】Zyroo *"
  ],
  "participants" : [
      {
          "name" : "【W】[Unicorn] QH",
          "league" : "gold"
      },
      {
          "name" : "[BSE][Unicorn] Makocb",
          "league" : "plat"
      },
      {
          "name" : "jerle-apeño",
          "league" : "gold"
      },
      {
          "name" : "TheEffectTheCause ",
          "league" : "plat"
      },
      {
          "name" : "Academia",
          "league" : "uber"
      },
      {
          "name" : "[FORGE] Ferretmaster",
          "league" : "uber"
      },
      {
          "name" : "Fhuj",
          "league" : "gold"
      },
      {
          "name" : "【W】blazing tortoise",
          "league" : "plat"
      },
      {
          "name" : "[ICARUS] Nimzo",
          "league" : "uber"
      },
      {
          "name" : "【W】Viroo *",
          "league" : "uber"
      },
      {
          "name" : "【W】Zyroo *",
          "league" : "plat"
      }
  ],
  "bracket" : {
      "rounds" : [
          {
              "name" : "Finals",
              "pairings" : [
                {
                  "teams" : [
                      {
                          "players" : [
                              {
                                "league" : "plat",
                                "name" : "TETC",
                                "id" : "5f0e8b28d89a4b1dea7e94f1"
                              }
                          ]
                      },
                      {
                          "players" : [
                              {
                                "league" : "uber",
                                "name" : "[ICARUS] Nimzo",
                                "id" : "5f0e8bb8d89a4b1dea7e952f"
                              }
                          ]
                      }
                  ]
              }
              ]
          },
          {
              "name" : "Semi-Finals",
              "pairings" : [
                {
                  "teams" : [
                      {
                          "players" : [
                              {
                                "league" : "gold",
                                "name" : "jerle-apeño",
                                "id" : "5f0e8b1bd89a4b1dea7e94e5"
                              }
                          ]
                      },
                      {
                          "players" : [
                              {
                                "league" : "plat",
                                "name" : "TETC",
                                "id" : "5f0e8b28d89a4b1dea7e94f1"
                              }
                          ]
                      }
                  ]
              },
              {
                  "teams" : [
                      {
                          "players" : [
                              {
                                "league" : "plat",
                                "name" : "【W】blazingTortoise",
                                "id" : "5f0e8b97d89a4b1dea7e951e"
                              }
                          ]
                      },
                      {
                          "players" : [
                              {
                                "league" : "uber",
                                "name" : "[ICARUS] Nimzo",
                                "id" : "5f0e8bb8d89a4b1dea7e952f"
                              }
                          ]
                      }
                  ]
              }
              ]
          },
          {
              "name" : "Round of 8",
              "pairings" : [
                  {
                      "teams" : [
                          {
                              "players" : [
                                  {
                                      "league" : "gold",
                                      "name" : "Fhuj",
                                      "id" : "5f0e8b54d89a4b1dea7e9503"
                                  }
                              ]
                          },
                          {
                              "players" : [
                                  {
                                      "league" : "gold",
                                      "name" : "jerle-apeño",
                                      "id" : "5f0e8b1bd89a4b1dea7e94e5"
                                  }
                              ]
                          }
                      ]
                  },
                  {
                      "teams" : [
                          {
                              "players" : [
                                  {
                                      "league" : "plat",
                                      "name" : "Academia",
                                      "id" : "5f0e8b3cd89a4b1dea7e94f9"
                                  }
                              ]
                          },
                          {
                              "players" : [
                                  {
                                      "league" : "plat",
                                      "name" : "TETC",
                                      "id" : "5f0e8b28d89a4b1dea7e94f1"
                                  }
                              ]
                          }
                      ]
                  },
                  {
                      "teams" : [
                          {
                              "players" : [
                                  {
                                      "league" : "plat",
                                      "name" : "【W】blazingTortoise",
                                      "id" : "5f0e8b97d89a4b1dea7e951e"
                                  }
                              ]
                          },
                          {
                              "players" : [
                                  {
                                      "league" : "plat",
                                      "name" : "[FORGE] Ferretmaster",
                                      "id" : "5f0e8c3bd89a4b1dea7e9560"
                                  }
                              ]
                          }
                      ]
                  },
                  {
                      "teams" : [
                          {
                              "players" : [
                                  {
                                      "league" : "uber",
                                      "name" : "[ICARUS] Nimzo",
                                      "id" : "5f0e8bb8d89a4b1dea7e952f"
                                  }
                              ]
                          },
                          {
                              "players" : [
                                  {
                                      "league" : "gold",
                                      "name" : "【W】[Unicorn] QH",
                                      "id" : "5f0e8af8d89a4b1dea7e94ce"
                                  }
                              ]
                          }
                      ]
                  }
              ]
          }
      ]
  },
  "maps" : [
      "The Choke 1v1 shared",
      "Diadect 1v1 shared",
      "ROC",
      "the classy barren 1v1",
      "niflhel",
      "tropic",
      "tournament gas 1v1 shared",
      "pacific",
      "PAF 5p FFA",
      "PAX",
      "Decider in the finals will be on a secret system"
  ],
  "mods" : [
      "Super Commander mod"
  ],
  "prizes" : [
      "Unicorn-Commander for the winner"
  ],
  "winner" : {
      "name" : "[ICARUS] Nimzo",
      "league" : "uber"
  }
}
